71

C   27.737  23.924  15.463
C   28.344  21.316  15.612
C   26.878  23.642  16.772
C   27.381  21.303  16.823
C   26.252  22.306  16.754
C   26.874  24.164  14.228
C   28.530  25.184  15.816
C   27.593  20.737  14.370
C   29.549  20.562  15.969
C   24.360  21.636  18.122
C   23.474  22.165  19.158
C   23.659  23.259  19.903
C   22.706  23.424  20.918
C   21.810  22.355  20.843
C   20.901  22.135  21.953
C   20.225  20.988  22.063
C   19.254  21.036  23.084
C   19.519  22.141  23.911
C   18.095  19.958  23.230
C   17.996  19.003  22.088
C   18.741  22.511  25.127
C   18.922  23.770  25.617
C   18.050  23.932  26.692
C   17.313  22.828  26.946
C   16.248  22.762  27.981
C   15.406  21.673  28.302
C   14.490  22.070  29.317
C   14.701  23.365  29.764
C   15.326  20.242  27.813
C   14.630  20.050  26.469
H   26.062  24.356  16.901
H   27.488  23.667  17.677
H   27.002  20.282  16.905
H   27.981  21.534  17.706
H   25.577  22.143  15.910
H   26.180  23.325  14.174
H   26.248  25.056  14.247
H   27.580  24.221  13.400
H   29.282  25.391  15.056
H   27.960  26.108  15.919
H   29.015  24.954  16.765
H   28.236  20.554  13.509
H   27.215  19.760  14.672
H   26.683  21.269  14.094
H   30.112  20.432  15.044
H   30.085  21.198  16.673
H   29.282  19.655  16.511
H   25.852  22.826  18.727
H   24.480  23.961  19.801
H   22.703  24.305  21.552
H   20.289  20.240  21.279
H   18.161  19.491  24.215
H   17.206  20.587  23.306
H   19.536  24.550  25.179
H   18.073  24.817  27.319
H   13.798  21.332  29.709
H   14.119  23.892  30.511
H   16.336  19.884  27.601
H   15.001  19.558  28.600
O   29.585  23.027  14.396
O   24.073  20.776  17.331
O   18.030  17.803  22.344
O   17.792  19.270  20.906
O   14.431  18.949  26.005
O   14.224  21.053  25.847
N   28.717  22.784  15.275
N   25.568  22.180  18.005
S   22.213  21.106  19.736
S   20.692  23.239  23.223
S   17.639  21.501  25.912
S   16.097  24.164  29.031
